<svg width="23" height="23" viewBox="0 0 23 23" fill="none" xmlns="http://www.w3.org/2000/svg">
<path d="M11.5001 23.0004C17.8412 23.0004 23 17.8414 23 11.5002C23 5.15904 17.8412 0 11.5001 0C5.15893 0 0 5.15904 0 11.5002C0 17.8414 5.15893 23.0004 11.5001 23.0004ZM11.5001 1.57429C16.9731 1.57429 21.4257 6.027 21.4258 11.5002C21.4258 16.9733 16.9732 21.426 11.5001 21.4261C6.027 21.426 1.57439 16.9733 1.57439 11.5001C1.57439 6.0271 6.027 1.57429 11.5001 1.57429Z" fill="white"/>
<path d="M9.95574 16.4259C10.2631 16.7332 10.7616 16.7331 11.0689 16.4259C11.3764 16.1184 11.3764 15.6201 11.0688 15.3126L8.04403 12.288L16.803 12.2871C17.2378 12.287 17.5901 11.9347 17.5901 11.4998C17.59 11.065 17.2377 10.7128 16.8029 10.7128L8.04361 10.7137L11.0691 7.68841C11.3765 7.38101 11.3765 6.88249 11.0691 6.57518C10.9153 6.42153 10.7139 6.3446 10.5124 6.3446C10.311 6.3446 10.1096 6.42153 9.95584 6.57508L5.58678 10.944C5.43911 11.0916 5.3562 11.2917 5.3562 11.5006C5.35631 11.7095 5.43922 11.9095 5.58689 12.0574L9.95574 16.4259Z" fill="white"/>
</svg>
