<svg width="24" height="15" viewBox="0 0 24 15" fill="none" xmlns="http://www.w3.org/2000/svg">
<path d="M23.3042 7.10126L23.3042 7.10129C23.4779 7.33869 23.4779 7.6613 23.3042 7.89897C23.2012 8.03969 21.9019 9.79275 19.8326 11.5098C17.7613 13.2285 14.9318 14.9 11.7671 14.9C8.60243 14.9 5.77292 13.2285 3.70158 11.5098C1.63214 9.79263 0.332806 8.03942 0.23012 7.8988C0.0566266 7.66107 0.0566266 7.33866 0.23012 7.10092C0.333033 6.96013 1.63233 5.20715 3.70158 3.49019C5.77292 1.77151 8.60243 0.1 11.7671 0.1C14.9318 0.1 17.7613 1.77151 19.8326 3.49023C21.9021 5.20746 23.2015 6.96076 23.3042 7.10126ZM1.68694 7.43594L1.63462 7.49954L1.68701 7.56308C2.29387 8.29918 3.62228 9.79314 5.39193 11.1038C7.16022 12.4135 9.37986 13.5483 11.7671 13.5483C14.1594 13.5483 16.3794 12.4142 18.1467 11.1048C19.9153 9.79452 21.2412 8.30079 21.8473 7.56406L21.8996 7.50046L21.8472 7.43692C21.2401 6.70043 19.9117 5.20647 18.142 3.89586C16.3738 2.58626 14.1543 1.45172 11.7671 1.45172C9.37485 1.45172 7.15482 2.58583 5.38754 3.89515C3.61893 5.20546 2.29303 6.69918 1.68694 7.43594Z" fill="white" stroke="#FBFBFB" stroke-width="0.2"/>
<path d="M11.7672 2.84375C9.20037 2.84375 7.112 4.93212 7.112 7.49894C7.112 10.0658 9.20037 12.1541 11.7672 12.1541C14.334 12.1541 16.4224 10.0658 16.4224 7.49894C16.4224 4.93212 14.334 2.84375 11.7672 2.84375Z" fill="white"/>
</svg>
