<svg width="21" height="21" viewBox="0 0 21 21" fill="none" xmlns="http://www.w3.org/2000/svg">
<path d="M19.0532 2.16439C16.5866 -0.302191 12.5567 -0.302191 10.0901 2.16439L2.41243 9.84205C-0.0541446 12.3086 -0.0541446 16.3385 2.41243 18.8051C3.66309 20.0558 5.26116 20.6811 6.89396 20.6811C8.52677 20.6811 10.1248 20.0558 11.3755 18.8051L19.0532 11.1274C21.5197 8.66087 21.5197 4.63096 19.0532 2.16439ZM9.67321 17.1028C8.14462 18.6314 5.6433 18.6314 4.11472 17.1028C2.58614 15.5742 2.58614 13.0729 4.11472 11.5443L7.17189 8.48717L12.7304 14.0457L9.67321 17.1028ZM17.4203 5.32578C17.2119 5.53422 16.934 5.63844 16.6561 5.63844C16.3781 5.63844 16.1002 5.53422 15.8918 5.32578C15.1622 4.59623 13.981 4.59623 13.2515 5.32578C12.8346 5.7774 12.1398 5.7774 11.6882 5.32578C11.2713 4.90889 11.2713 4.21408 11.6882 3.79719C13.2862 2.23387 15.8223 2.23387 17.4203 3.79719C17.8372 4.21408 17.8372 4.90889 17.4203 5.32578Z" fill="#999999"/>
</svg>
